[
	{
    "id": 1,
    "name":"Product #1", 
    "description":"Product Description", 
    "price": 50
  }, {
    "id": 2,
    "name":"Product #2",
    "description":"Product Description",
    "price": 150
  }
]
